{
    "Users": {
        "href": "http://www.testmyq.com/api/v5/My/Users"
    },
    "Admin": false,
    "Account": {
        "href": "http://www.testmyq.com/api/v5/Accounts/f3e11a0a-cf85-47ce-864c-fe9f764221f6",
        "Id": "f3e11a0a-cf85-47ce-864c-fe9f764221f6",
        "Name": "Some Guy's Account",
        "Email": "some@guy.whatever",
        "Address": {
            "AddressLine1": "123 Fake St.",
            "AddressLine2": "",
            "City": "Springfield",
            "State": "Illinois",
            "PostalCode": "12345",
            "Country": {
                "Code": "USA",
                "IsEEACountry": false,
                "href": "http://www.testmyq.com/api/v5/Countries/USA"
            }
        },
        "Phone": "4123567890",
        "ContactName": "Some Guy",
        "DirectoryCodeLength": 0,
        "UserAllowance": 4,
        "TimeZone": "America/New_York",
        "Devices": {
            "href": "http://www.testmyq.com/api/v5/Accounts/f3e11a0a-cf85-47ce-864c-fe9f764221f6/Devices"
        },
        "Users": {
            "href": "http://www.testmyq.com/api/v5/Accounts/f3e11a0a-cf85-47ce-864c-fe9f764221f6/Users"
        },
        "AccessGroups": {
            "href": "http://www.testmyq.com/api/v5/Accounts/f3e11a0a-cf85-47ce-864c-fe9f764221f6/AccessGroups"
        },
        "Roles": {
            "href": "http://www.testmyq.com/api/v5/Accounts/f3e11a0a-cf85-47ce-864c-fe9f764221f6/Roles"
        },
        "AccessSchedules": {
            "href": "http://www.testmyq.com/api/v5/Accounts/f3e11a0a-cf85-47ce-864c-fe9f764221f6/AccessSchedules"
        },
        "Zones": {
            "href": "http://www.testmyq.com/api/v5/Accounts/f3e11a0a-cf85-47ce-864c-fe9f764221f6/Zones"
        }
    },
    "AnalyticsId": "f92ece40-54d4-4b3a-a16f-f0b90ad48125",
    "UserId": "f3e11a0a-cf85-47ce-864c-fe9f764221f6",
    "UserName": "some@guy.whatever",
    "Email": "some@guy.whatever",
    "FirstName": "Some",
    "LastName": "Guy",
    "CultureCode": "en",
    "Address": {
        "AddressLine1": "123 Fake St.",
        "AddressLine2": "",
        "City": "Springfield",
        "PostalCode": "12345",
        "Country": {
            "Code": "USA",
            "IsEEACountry": false,
            "href": "http://www.testmyq.com/api/v5/Countries/USA"
        }
    },
    "TimeZone": {
        "Id": "America/New_York",
        "Name": "America/New_York"
    },
    "MailingListOptIn": false,
    "RequestAccountLinkInfo": false,
    "Phone": "4123567890",
    "DiagnosticDataOptIn": true
}